{ "height":32,
 "layers":[
        {
         "data":[38, 31, 40, 39, 40, 40, 40, 39, 38, 40, 31, 40, 38, 38, 31, 39, 39, 38, 38, 40, 40, 31, 40, 38, 39, 38, 31, 31, 31, 40, 39, 40, 38, 40, 39, 31, 39, 39, 38, 38, 38, 39, 31, 31, 39, 31, 31, 31, 39, 40, 39, 40, 39, 38, 38, 38, 38, 38, 38, 38, 40, 40, 39, 31, 40, 31, 40, 31, 31, 31, 31, 31, 31, 31, 39, 31, 38, 40, 40, 40, 40, 31, 39, 40, 31, 31, 31, 31, 38, 31, 31, 38, 38, 38, 38, 40, 39, 39, 38, 38, 38, 31, 38, 38, 40, 31, 31, 39, 40, 31, 31, 39, 39, 39, 31, 39, 38, 39, 31, 38, 38, 38, 38, 38, 38, 38, 38, 40, 40, 40, 31, 31, 40, 40, 40, 31, 39, 31, 31, 31, 31, 38, 38, 31, 31, 31, 39, 39, 39, 40, 40, 38, 39, 40, 38, 40, 40, 40, 31, 38, 39, 38, 31, 39, 38, 31, 40, 38, 39, 40, 39, 31, 38, 40, 38, 38, 39, 31, 31, 40, 38, 40, 31, 40, 40, 39, 31, 38, 40, 31, 39, 39, 39, 38, 39, 39, 40, 31, 40, 38, 40, 31, 31, 38, 40, 38, 39, 38, 40, 40, 39, 39, 31, 38, 31, 40, 31, 39, 39, 40, 39, 38, 31, 31, 31, 40, 40, 38, 40, 38, 31, 39, 39, 40, 38, 38, 40, 31, 31, 40, 31, 39, 31, 39, 39, 39, 38, 39, 39, 31, 39, 40, 38, 31, 40, 31, 30, 30, 30, 40, 30, 38, 31, 30, 38, 40, 40, 38, 38, 31, 39, 31, 31, 40, 39, 30, 40, 40, 31, 40, 40, 40, 39, 31, 40, 39, 31, 31, 39, 40, 31, 38, 31, 38, 40, 30, 30, 31, 30, 38, 40, 30, 30, 38, 30, 30, 30, 39, 30, 30, 30, 40, 40, 38, 40, 38, 39, 39, 31, 30, 30, 30, 30, 31, 39, 31, 30, 1, 2, 2, 2, 2, 2, 2, 2, 2, 2, 2, 2, 2, 2, 2, 2, 2, 2, 2, 2, 2, 2, 2, 2, 2, 2, 2, 2, 2, 2, 2, 2, 3, 30, 30, 30, 39, 40, 30, 30, 30, 30, 30, 30, 30, 30, 30, 30, 30, 30, 30, 30, 30, 30, 30, 39, 30, 30, 30, 30, 31, 38, 39, 30, 9, 10, 10, 10, 10, 10, 10, 10, 10, 10, 10, 10, 10, 10, 10, 10, 10, 10, 10, 10, 10, 10, 10, 10, 10, 10, 10, 10, 10, 10, 10, 10, 11, 30, 30, 30, 30, 30, 30, 30, 30, 30, 30, 30, 30, 30, 30, 30, 30, 30, 30, 30, 30, 30, 30, 30, 30, 30, 30, 30, 30, 30, 30, 30, 9, 34, 34, 10, 10, 10, 10, 10, 10, 10, 10, 10, 10, 10, 10, 10, 10, 10, 10, 10, 10, 10, 10, 10, 10, 10, 10, 10, 10, 10, 10, 10, 11, 30, 30, 30, 30, 30, 30, 30, 30, 30, 30, 30, 30, 30, 30, 30, 30, 30, 30, 30, 30, 30, 30, 30, 30, 30, 30, 30, 30, 30, 30, 30, 9, 34, 34, 20, 18, 18, 18, 18, 18, 18, 21, 10, 10, 10, 20, 18, 18, 18, 18, 18, 18, 18, 18, 18, 21, 10, 10, 20, 21, 10, 10, 10, 11, 30, 30, 30, 30, 30, 30, 47, 47, 30, 30, 30, 30, 30, 30, 30, 30, 30, 30, 30, 30, 30, 30, 30, 30, 26, 26, 26, 26, 26, 26, 26, 45, 34, 34, 35, 30, 30, 30, 30, 30, 38, 9, 10, 10, 10, 11, 38, 38, 38, 40, 38, 38, 40, 38, 39, 9, 10, 10, 11, 9, 10, 10, 10, 11, 30, 30, 30, 30, 30, 30, 47, 47, 30, 30, 30, 30, 30, 25, 26, 26, 26, 26, 26, 26, 26, 26, 26, 26, 34, 34, 34, 34, 34, 34, 34, 34, 34, 34, 35, 30, 30, 30, 30, 30, 30, 9, 10, 10, 10, 28, 2, 2, 2, 2, 2, 2, 2, 2, 2, 29, 10, 10, 11, 9, 10, 10, 10, 11, 30, 30, 30, 30, 30, 30, 48, 47, 30, 30, 30, 30, 30, 33, 34, 34, 34, 34, 34, 34, 34, 34, 34, 34, 34, 34, 34, 34, 34, 34, 34, 34, 34, 34, 44, 26, 30, 30, 30, 30, 30, 9, 10, 10, 10, 10, 10, 10, 10, 10, 10, 10, 10, 10, 10, 10, 10, 10, 11, 9, 10, 10, 10, 11, 30, 30, 30, 30, 30, 30, 30, 30, 30, 30, 30, 30, 30, 33, 34, 34, 34, 34, 34, 34, 34, 34, 34, 34, 34, 34, 34, 34, 34, 34, 34, 34, 34, 34, 34, 15, 15, 12, 30, 30, 30, 9, 10, 10, 10, 10, 10, 10, 10, 10, 10, 10, 10, 10, 10, 10, 10, 10, 11, 9, 10, 10, 10, 11, 32, 30, 30, 30, 30, 30, 30, 30, 30, 30, 30, 30, 30, 33, 34, 34, 34, 34, 34, 34, 34, 34, 34, 34, 34, 34, 34, 34, 34, 34, 34, 34, 34, 34, 34, 15, 15, 15, 16, 30, 30, 9, 10, 10, 10, 20, 18, 18, 21, 10, 10, 20, 18, 18, 18, 18, 18, 18, 19, 9, 10, 10, 10, 11, 32, 30, 30, 30, 30, 30, 30, 30, 30, 30, 30, 30, 30, 33, 34, 34, 34, 34, 34, 34, 34, 34, 34, 34, 10, 10, 34, 34, 34, 34, 34, 34, 34, 34, 34, 15, 4, 23, 24, 30, 30, 9, 10, 10, 10, 11, 40, 39, 9, 10, 10, 11, 7, 7, 7, 7, 8, 30, 30, 30, 5, 15, 15, 16, 30, 30, 30, 30, 30, 30, 30, 30, 30, 30, 30, 30, 30, 33, 34, 34, 34, 34, 34, 34, 34, 34, 34, 34, 10, 10, 34, 34, 34, 34, 34, 34, 34, 34, 36, 42, 30, 30, 30, 30, 30, 9, 10, 10, 10, 11, 40, 31, 9, 10, 20, 19, 15, 15, 15, 15, 16, 30, 30, 30, 30, 5, 15, 16, 30, 30, 30, 30, 30, 30, 30, 30, 30, 30, 30, 30, 30, 33, 34, 34, 34, 34, 34, 34, 34, 34, 10, 10, 10, 10, 34, 34, 34, 34, 34, 34, 34, 34, 35, 32, 30, 30, 30, 30, 30, 9, 10, 10, 10, 11, 39, 38, 9, 10, 11, 14, 15, 15, 15, 15, 16, 30, 30, 30, 30, 30, 23, 24, 30, 30, 30, 30, 30, 30, 30, 30, 30, 30, 30, 30, 30, 33, 34, 34, 34, 34, 34, 34, 34, 34, 10, 10, 34, 34, 34, 34, 34, 34, 34, 34, 34, 34, 35, 32, 30, 30, 30, 30, 30, 9, 10, 10, 10, 11, 30, 30, 9, 10, 11, 14, 15, 15, 15, 15, 16, 30, 30, 30, 30, 30, 30, 30, 30, 40, 38, 40, 39, 30, 30, 30, 30, 30, 7, 26, 26, 45, 34, 34, 34, 34, 34, 34, 34, 34, 10, 10, 34, 34, 34, 34, 34, 34, 34, 34, 34, 34, 35, 30, 30, 30, 39, 40, 39, 9, 10, 10, 10, 11, 30, 30, 9, 10, 11, 14, 15, 15, 15, 15, 16, 30, 30, 30, 30, 30, 30, 30, 30, 40, 38, 31, 31, 30, 30, 30, 30, 14, 15, 15, 15, 34, 34, 34, 34, 34, 34, 34, 34, 34, 34, 34, 34, 34, 34, 34, 34, 34, 34, 34, 34, 34, 35, 30, 30, 38, 39, 40, 38, 9, 10, 10, 10, 11, 30, 30, 9, 10, 11, 14, 15, 15, 15, 15, 12, 8, 48, 48, 48, 30, 30, 30, 30, 39, 39, 38, 40, 30, 30, 30, 30, 14, 15, 15, 15, 34, 34, 34, 34, 34, 34, 34, 34, 34, 34, 34, 34, 34, 34, 34, 34, 34, 34, 34, 34, 34, 35, 30, 30, 39, 39, 38, 30, 9, 10, 10, 10, 11, 30, 30, 17, 18, 19, 13, 15, 15, 15, 15, 15, 16, 47, 48, 48, 30, 30, 30, 30, 39, 40, 40, 31, 30, 30, 30, 30, 30, 23, 37, 15, 34, 34, 34, 34, 34, 34, 34, 34, 34, 34, 34, 34, 34, 34, 34, 34, 34, 34, 34, 34, 34, 35, 30, 30, 40, 40, 30, 30, 9, 10, 10, 10, 11, 30, 30, 30, 30, 30, 5, 15, 15, 15, 15, 15, 16, 30, 48, 30, 30, 30, 30, 30, 39, 40, 39, 38, 31, 30, 30, 30, 30, 30, 41, 42, 37, 34, 34, 34, 34, 34, 34, 34, 34, 34, 34, 42, 42, 42, 42, 42, 42, 42, 42, 42, 42, 43, 30, 30, 39, 39, 30, 30, 29, 10, 10, 10, 28, 7, 7, 30, 30, 30, 22, 23, 23, 5, 15, 15, 16, 30, 30, 30, 30, 30, 30, 30, 38, 38, 39, 30, 39, 30, 30, 30, 30, 30, 30, 30, 41, 42, 42, 42, 42, 42, 42, 42, 42, 42, 42, 30, 30, 30, 30, 30, 30, 30, 30, 30, 30, 30, 30, 30, 39, 6, 13, 15, 10, 10, 10, 10, 10, 15, 15, 7, 8, 30, 30, 30, 32, 14, 15, 15, 16, 30, 30, 30, 30, 30, 30, 30, 38, 31, 31, 40, 38, 30, 30, 30, 30, 30, 30, 30, 30, 30, 30, 30, 30, 30, 30, 30, 30, 30, 30, 30, 30, 30, 30, 30, 30, 30, 30, 30, 30, 30, 30, 30, 39, 14, 15, 15, 10, 10, 10, 10, 10, 15, 15, 15, 16, 30, 30, 30, 30, 14, 15, 15, 16, 30, 30, 30, 30, 30, 30, 30, 31, 38, 39, 40, 39, 30, 30, 30, 30, 30, 30, 30, 30, 30, 30, 30, 30, 30, 30, 30, 30, 30, 30, 30, 30, 30, 30, 30, 30, 30, 30, 30, 30, 30, 30, 30, 30, 22, 23, 23, 21, 10, 10, 10, 20, 23, 23, 23, 24, 30, 30, 30, 30, 22, 23, 23, 24, 30, 30, 30, 30, 30, 30, 30, 30, 30, 30, 30, 30, 30, 30, 30, 30, 30, 30, 30, 30, 30, 30, 30, 30, 30, 30, 30, 30, 30, 30, 30, 30, 30, 30, 30, 30, 30, 30, 30, 30, 30, 30, 30, 30, 30, 30, 30, 17, 18, 18, 18, 19, 30, 30, 30, 30, 30, 30, 30, 30, 30, 30, 30, 30, 30, 30, 30, 30, 30, 30, 30, 30, 30, 30, 30, 30, 30, 30, 30, 30, 30, 30, 30, 30, 30, 30, 30, 30, 30, 30, 30, 30, 30, 30, 30, 30, 30, 30, 30, 30, 30, 30, 30, 30, 30, 30, 30, 30, 30, 30, 30, 30, 30, 30, 30, 30, 30, 30, 30, 30, 30, 30, 30, 30, 30, 30, 30, 30, 30, 30, 30, 30, 30, 31, 40, 31, 38, 39, 39, 31, 31, 30, 30, 30, 30, 30, 30, 30, 30, 30, 30, 30, 30, 30, 30, 30, 30, 30, 40, 40, 30, 30, 30, 30, 30, 30, 30, 30, 30, 30, 30, 30, 30, 40, 30, 30, 30, 30, 30, 30, 30, 31, 38, 30, 30, 30, 30, 30, 30, 30, 30, 30, 30, 30, 40, 30, 40, 40, 31, 31, 40, 31, 40, 39, 40, 30, 30, 30, 30, 30, 30, 30, 30, 30, 30, 30, 30, 30, 30, 30, 30, 40, 40, 39, 32, 38, 32, 38, 30, 30, 38, 40, 32, 32, 32, 38, 32, 40, 39, 31, 30, 30, 32, 38, 30, 38, 40, 40, 31, 30, 30, 30, 39, 30, 30, 39, 31, 38, 38, 32, 40, 38, 38, 31, 38, 39, 39, 40, 40, 39, 31, 30, 30, 30, 30, 30, 30, 30, 30, 30, 30, 31, 39, 39, 31, 39, 32, 39, 39, 39, 38, 31, 32, 40, 38, 31, 39, 38, 31, 38, 39, 31, 40, 32, 39, 40, 39, 38, 39, 32, 32, 32, 39, 38, 40, 32, 31, 31, 38, 40, 40, 38, 31, 31, 40, 40, 38, 31, 40, 39, 40, 40, 31, 40, 31, 39, 40, 38, 39, 39, 40, 30, 39, 39, 39, 38, 40, 40, 31, 40, 31, 32, 39, 31, 31, 38, 40, 40, 40, 31, 40, 40, 38, 40, 39, 39, 40, 40, 40, 31, 31, 38, 31, 40, 40, 40, 39, 38, 31, 38, 38, 40, 40, 40, 40, 38, 40, 38, 40, 31, 38, 39, 40, 39, 39, 31, 39, 31, 38, 31, 39, 31, 31, 31, 40, 38, 31, 40, 31, 40, 40, 31, 38, 39],
         "height":32,
         "name":"terrain",
         "opacity":1,
         "properties":
            {
             "tileset":"tmw_desert_spacing",
             "walkable":"9,33,29",
             "walkable_extra_cost":"3,4,11,12,5,6,7,13,14,15,21,22,23,46,47"
            },
         "type":"tilelayer",
         "visible":true,
         "width":64,
         "x":0,
         "y":0
        }],
 "nextobjectid":1,
 "orientation":"orthogonal",
 "properties":
    {
     "generated_terrain":"ctf_desert_map_small.png"
    },
 "renderorder":"left-up",
 "tileheight":32,
 "tilesets":[
        {
         "firstgid":1,
         "image":"tmw_desert_spacing.png",
         "imageheight":199,
         "imagewidth":265,
         "margin":1,
         "name":"tmw_desert_spacing",
         "properties":
            {

            },
         "spacing":1,
         "tileheight":32,
         "tilewidth":32
        }],
 "tilewidth":32,
 "version":1,
 "width":64
}